<?xml version="1.0" encoding="UTF-8" standalone="no"?>
<!-- Created with Inkscape (http://www.inkscape.org/) -->

<svg
   xmlns:dc="http://purl.org/dc/elements/1.1/"
   xmlns:cc="http://creativecommons.org/ns#"
   xmlns:rdf="http://www.w3.org/1999/02/22-rdf-syntax-ns#"
   xmlns:svg="http://www.w3.org/2000/svg"
   xmlns="http://www.w3.org/2000/svg"
   xmlns:sodipodi="http://sodipodi.sourceforge.net/DTD/sodipodi-0.dtd"
   xmlns:inkscape="http://www.inkscape.org/namespaces/inkscape"
   width="42.968346mm"
   height="43.038982mm"
   viewBox="0 0 42.968346 43.038982"
   version="1.1"
   id="svg8"
   inkscape:version="0.92.1 r15371"
   sodipodi:docname="logo-trachite.svg">
  <defs
     id="defs2" />
  <sodipodi:namedview
     id="base"
     pagecolor="#ffffff"
     bordercolor="#666666"
     borderopacity="1.0"
     inkscape:pageopacity="0.0"
     inkscape:pageshadow="2"
     inkscape:zoom="3.959798"
     inkscape:cx="32.336058"
     inkscape:cy="73.628785"
     inkscape:document-units="mm"
     inkscape:current-layer="layer1"
     showgrid="false"
     inkscape:pagecheckerboard="true"
     inkscape:window-width="1920"
     inkscape:window-height="1017"
     inkscape:window-x="-8"
     inkscape:window-y="32"
     inkscape:window-maximized="1" />
  <metadata
     id="metadata5">
    <rdf:RDF>
      <cc:Work
         rdf:about="">
        <dc:format>image/svg+xml</dc:format>
        <dc:type
           rdf:resource="http://purl.org/dc/dcmitype/StillImage" />
        <dc:title />
      </cc:Work>
    </rdf:RDF>
  </metadata>
  <g
     inkscape:label="Livello 1"
     inkscape:groupmode="layer"
     id="layer1"
     transform="translate(-58.010745,-114.01032)">
    <path
       style="fill:#ffffff;stroke-width:0.35277781;fill-opacity:1"
       d="m 61.478268,156.88605 c 0,-0.53299 1.509186,-4.07017 1.736593,-4.07017 0.276697,0 2.583419,0.74039 2.777208,0.8914 0.05724,0.0446 -0.08067,0.81479 -0.306463,1.71152 l -0.410542,1.63041 h -1.898398 c -1.044119,0 -1.898398,-0.0734 -1.898398,-0.16316 z m 4.950378,-1.99145 c 0.3588,-1.18504 0.732319,-2.23457 0.830042,-2.33229 0.09772,-0.0977 0.991516,-0.24125 1.986206,-0.31894 1.59351,-0.12447 1.787707,-0.0674 1.6334,0.4802 -0.09632,0.34181 -0.278207,1.1771 -0.404192,1.8562 -0.46826,2.52406 -0.40993,2.46944 -2.637267,2.46944 h -2.060553 z m 4.237238,1.89003 c 0.0085,-0.14552 0.212767,-1.21709 0.454001,-2.38125 l 0.438609,-2.11667 2.066011,-0.10731 2.06602,-0.10731 -0.22696,1.65586 c -0.12483,0.91071 -0.22696,2.03057 -0.22696,2.48855 0,0.78969 -0.11847,0.83271 -2.293059,0.83271 -1.26118,0 -2.286128,-0.11906 -2.277662,-0.26458 z m 5.280161,-1.05834 c 0.002,-0.7276 0.0983,-1.89375 0.21372,-2.59144 l 0.20984,-1.26853 2.25572,-0.073 2.25572,-0.073 v 2.66447 2.66447 h -2.46944 -2.46945 l 0.004,-1.32292 z m 5.61073,0.17639 c -0.0164,-0.63059 -0.0974,-1.82121 -0.18008,-2.64583 l -0.15026,-1.49931 h 2.44511 c 2.74661,0 2.51689,-0.27421 3.02925,3.61598 l 0.22071,1.67569 h -2.66745 -2.66745 z m 5.87291,-0.52916 c -0.12884,-0.92164 -0.32328,-2.19164 -0.43209,-2.82223 l -0.19785,-1.14652 h 2.6715 2.671505 l 0.38737,1.4993 c 0.21305,0.82462 0.4447,1.73743 0.51477,2.02847 0.0701,0.29105 0.23007,0.88636 0.35555,1.32292 0.22379,0.77855 0.17103,0.79375 -2.754175,0.79375 h -2.98233 z m 6.221465,-1.04235 c -0.41185,-1.49492 -0.68825,-2.77863 -0.6142,-2.85267 0.074,-0.074 1.33739,-0.2212 2.80742,-0.327 l 2.67278,-0.19236 0.5426,1.29862 c 0.29843,0.71424 0.85236,2.08451 1.23097,3.04504 l 0.68837,1.74641 h -3.28955 -3.28956 z m -30.585382,-2.30541 c -2.94227,-0.88625 -2.85175,-0.82975 -2.332332,-1.45561 0.323298,-0.38955 0.264675,-0.75868 -0.267479,-1.68422 -0.63713,-1.10812 -0.650553,-1.36916 -0.206076,-4.00755 0.771069,-4.57703 0.662686,-7.52193 -0.35049,-9.5232 -0.627626,-1.23972 -0.772094,-1.87574 -0.529167,-2.32966 0.183785,-0.3434 0.334155,-1.86796 0.334155,-3.38789 0,-2.36647 -0.126716,-2.95 -0.881945,-4.06142 -1.133428,-1.66799 -1.110245,-2.4614 0.168998,-5.78354 0.711245,-1.84708 0.93935,-2.86372 0.705702,-3.14525 -0.363745,-0.43828 0.204047,-2.6371 0.680968,-2.6371 0.518625,0 1.696976,1.98949 1.867828,3.15358 0.101882,0.69417 -0.108757,2.11804 -0.49537,3.34859 -0.958568,3.05102 -0.998993,4.08752 -0.213287,5.46868 0.57529,1.01127 0.676635,1.79713 0.614171,4.7625 -0.05767,2.73787 0.07295,3.92978 0.570242,5.20331 0.597982,1.5314 0.611834,1.9981 0.189826,6.3957 -0.352278,3.67098 -0.360712,4.92035 -0.03729,5.52467 0.229863,0.4295 0.329624,1.13276 0.221691,1.5628 -0.163977,0.65333 0.01959,0.85891 1.116531,1.25039 3.260123,1.1635 3.081829,1.04087 2.335128,1.60607 -0.81264,0.61512 -0.508111,0.63787 -3.491801,-0.26085 z m 6.526389,-0.98953 c 0,-0.13784 0.236124,-0.44659 0.524719,-0.68611 0.419601,-0.34823 0.790636,-0.32519 1.852084,0.11502 l 1.327364,0.55049 -1.058333,0.0476 c -0.582084,0.0262 -1.415521,0.0872 -1.852084,0.13561 -0.436562,0.0484 -0.79375,-0.0247 -0.79375,-0.16259 z m 3.523072,-0.8744 -2.288349,-1.16099 -1.146528,0.86714 c -1.632427,1.23463 -1.424407,0.75782 0.246865,-0.56585 l 1.393393,-1.10359 1.340635,0.8342 c 0.737349,0.45881 1.53299,0.94769 1.76808,1.08641 0.27407,0.16171 0.68109,-0.24499 1.13436,-1.13346 0.59145,-1.15935 0.67669,-1.83841 0.5219,-4.1576 -0.27046,-4.05215 -0.267,-5.0836 0.0223,-6.65249 0.43694,-2.3694 0.33015,-3.11964 -0.6486,-4.55657 l -0.94104,-1.38157 0.71845,-0.76475 c 0.58618,-0.62395 0.74202,-1.34388 0.84646,-3.9101 0.0704,-1.72994 0.23298,-4.01847 0.36128,-5.08562 0.22473,-1.86926 0.18815,-1.98784 -0.99941,-3.23942 l -1.23268,-1.29914 -1.411112,0.68178 c -1.768818,0.8546 -2.704799,0.84139 -4.267419,-0.0602 -0.679097,-0.39183 -0.917222,-0.60085 -0.529167,-0.46449 1.596362,0.56095 2.601376,0.52274 4.584581,-0.1743 l 2.087037,-0.73353 1.2503,1.14437 c 0.68767,0.6294 1.37657,1.23932 1.53089,1.35538 0.15432,0.11605 0.0271,1.80527 -0.28267,3.75382 -0.30978,1.94856 -0.48026,4.23133 -0.37883,5.07283 0.15806,1.3113 0.0513,1.66899 -0.74712,2.50233 -0.83971,0.87646 -0.88835,1.06711 -0.49343,1.93386 0.24096,0.52885 0.76167,1.18818 1.15714,1.46517 0.61085,0.42786 0.68632,0.7486 0.50163,2.13189 -0.11956,0.89555 -0.32215,2.02514 -0.45019,2.51021 -0.2633,0.99747 -0.24721,2.37365 0.079,6.75839 0.21048,2.82924 0.16584,3.14455 -0.6061,4.28055 l -0.83332,1.22634 z m -6.91281,0.37657 c -0.624462,-0.45661 -0.626619,-0.534 -0.04866,-1.74599 0.545938,-1.14484 0.742573,-1.2682 2.02158,-1.2682 1.884314,0 1.902672,0.90258 0.04866,2.39251 -1.20435,0.96784 -1.446391,1.04227 -2.02158,0.62168 z m 10.445296,0.23137 c 0,-0.15523 0.18734,-0.46957 0.41632,-0.69855 0.22898,-0.22898 0.52661,-1.09417 0.6614,-1.92264 l 0.24508,-1.50631 0.0442,1.99073 c 0.0337,1.51812 -0.0883,2.04156 -0.51386,2.20486 -0.73035,0.28026 -0.85309,0.27046 -0.85309,-0.0681 z m 2.11666,-2.01084 c 0,-1.06715 0.0397,-1.9487 0.0882,-1.95901 0.0485,-0.0103 1.00101,-0.10436 2.11667,-0.20901 l 2.02847,-0.19029 v 2.1493 2.14929 h -2.11667 -2.11667 z m 4.8793,0.26459 c -0.0319,-0.82462 -0.0712,-1.76972 -0.0874,-2.10023 -0.024,-0.49065 0.36865,-0.6252 2.13977,-0.73327 l 2.16917,-0.13236 0.23786,1.52703 c 0.13081,0.83986 0.31211,1.79155 0.40287,2.11487 0.1407,0.5012 -0.20118,0.6052 -2.31962,0.70555 l -2.48465,0.11771 z m 5.607,0.87331 c -0.10944,-0.28519 -0.30806,-1.24592 -0.44138,-2.13496 -0.22636,-1.50944 -0.1855,-1.63072 0.61728,-1.8322 0.47282,-0.11868 1.54042,-0.16564 2.372455,-0.10436 1.50947,0.11116 1.51413,0.11583 2.13838,2.13987 l 0.62562,2.02848 -0.75557,0.009 c -0.41557,0.005 -1.56608,0.0996 -2.556695,0.21085 -1.39429,0.1566 -1.84606,0.0852 -2.00009,-0.31624 z m -15.00297,-1.66706 c 0.0572,-0.75109 0.26369,-1.05834 0.71116,-1.05834 0.74452,0 0.75352,0.0496 0.22111,1.21813 -0.55403,1.21597 -1.03087,1.13424 -0.93227,-0.15979 z m -1.92152,-0.20178 c -1.274909,-0.69165 -1.223972,-0.85656 0.264583,-0.85656 0.999537,0 1.234727,0.13439 1.234727,0.70556 0,0.83239 -0.20521,0.85306 -1.49931,0.151 z m -3.439583,-1.46656 c 0,-0.10455 0.183878,-0.80381 0.408618,-1.55393 0.304177,-1.01525 0.597224,-1.36508 1.146528,-1.36866 0.40585,-0.003 1.106314,-0.10348 1.556587,-0.22405 0.780577,-0.20904 0.807316,-0.15546 0.574572,1.15134 -0.134258,0.75382 -0.343912,1.46959 -0.4659,1.59059 -0.28775,0.28544 -3.220405,0.65399 -3.220405,0.40471 z m 4.07835,-1.37081 c 0.317762,-1.7586 0.335695,-1.7846 1.366813,-1.98171 0.96717,-0.18489 1.25761,0.24808 1.25761,1.87471 0,0.74344 -0.17153,1.03082 -0.61736,1.0343 -0.33955,0.003 -0.98576,0.10347 -1.436035,0.22405 -0.78099,0.20914 -0.807277,0.15614 -0.571028,-1.15135 z m 4.917533,0.43093 c -0.0635,-0.21472 -0.20121,-0.88972 -0.3061,-1.50001 -0.15962,-0.9287 -0.0639,-1.14362 0.58683,-1.3181 1.37231,-0.36795 2.36363,-0.23949 2.40033,0.31105 0.16364,2.45463 0.16405,2.45375 -1.22992,2.68033 -0.84728,0.13772 -1.37796,0.0744 -1.45114,-0.17327 z m 3.35134,-1.62204 v -1.76697 h 1.5875 c 0.87312,0 1.70656,-0.0397 1.85208,-0.0882 0.20521,-0.0684 0.84507,2.95914 0.66068,3.126 -0.0238,0.0216 -0.95613,0.14201 -2.07179,0.26766 l -2.02847,0.22847 z m 4.75775,0.90517 c -0.0613,-0.20849 -0.19121,-0.95462 -0.28864,-1.65806 l -0.17716,-1.27899 1.60743,-0.22032 c 2.44741,-0.33545 2.45553,-0.3315 2.89407,1.41009 0.2258,0.89673 0.36371,1.67305 0.30646,1.72517 -0.35651,0.32457 -4.24737,0.34439 -4.34216,0.0221 z m -14.277934,-2.76033 c 0.01699,-1.55568 0.436587,-2.02847 1.800217,-2.02847 1.416647,0 1.705817,0.4782 1.155837,1.91142 -0.26567,0.69232 -2.963505,0.79915 -2.956054,0.11705 z m 5.286854,-0.61469 c 0,-1.01203 0.62258,-2.11934 1.1916,-2.11934 0.73305,0 0.18439,2.60897 -0.57961,2.7561 -0.4268,0.0822 -0.61199,-0.11049 -0.61199,-0.63676 z m 2.11666,-0.80682 c 0,-1.33422 0.41778,-1.6653 2.10142,-1.6653 0.82372,0 1.02196,0.18288 1.20832,1.11468 0.12262,0.61308 0.18215,1.15385 0.1323,1.20173 -0.0499,0.0479 -0.84471,0.19929 -1.76634,0.33648 l -1.6757,0.24945 z m 3.88056,-0.51787 c 0,-1.40423 9e-5,-1.40431 1.64514,-1.62979 0.90483,-0.12403 1.67752,-0.18529 1.71709,-0.13615 0.0396,0.0491 0.17958,0.68466 0.31112,1.41226 0.23663,1.30882 0.22679,1.32297 -0.92334,1.32774 -0.63938,0.003 -1.5197,0.10054 -1.95626,0.21753 -0.72584,0.19452 -0.79375,0.0926 -0.79375,-1.19159 z m -17.638891,-22.87048 -0.881945,-0.53138 0.881945,0.23378 c 0.485069,0.12858 1.120069,0.3685 1.411111,0.53315 0.47037,0.26612 0.47037,0.29918 0,0.29761 -0.291042,-9.9e-4 -0.926042,-0.2409 -1.411111,-0.53316 z"
       id="path4518"
       inkscape:connector-curvature="0"
       sodipodi:nodetypes="sscccssccccsscccsccccsscccccccccccccccscccccccccccccsccccccsccccccsssccssccssscscsccccccscccccsscccccscccccccccccccsccccccccccccccccsscccsccccccscccccccsscscccccsccccsccccccsccssssscccccsccscccccccscccsccccccccsscccccccsscsssccccsscccccscccccc" />
  </g>
</svg>
